OHDSI EU 2026 Workshop – CohortConstructor
…
Measurement based - Example

Let’s create a cohort of hypertension defined as two records of high pressure separated by less than a year. We will start identifying the measurement records that satisfy our criteria

Get relevant codelists with CodelistGenerator

systBP <- getCandidateCodes(cdm = cdm, keywords = "Systolic blood pressure", domains = "measurement") 
systBP

# A tibble: 145 × 6
   concept_id found_from          concept_name                                  domain_id vocabulary_id standard_concept
        <int> <chr>               <chr>                                         <chr>     <chr>         <chr>           
 1     608615 From initial search NPEWS (National Paediatric Early Warning Sco… Measurem… SNOMED        S               
 2     903107 From initial search Computed blood pressure systolic and diastol… Measurem… PPI           S               
 3     903118 From initial search Computed systolic blood pressure, mean of 2n… Measurem… PPI           S               
 4    1076804 From initial search Average ambulatory systolic blood pressure    Measurem… SNOMED        S               
 5    1076806 From initial search Average ambulatory day interval systolic blo… Measurem… SNOMED        S               
 6    1076808 From initial search Average ambulatory night interval systolic b… Measurem… SNOMED        S               
 7    3000054 From initial search Umbilical artery Systolic blood pressure      Measurem… LOINC         S               
 8    3000368 From initial search Left pulmonary artery Systolic blood pressure Measurem… LOINC         S               
 9    3000605 From initial search Systolic blood pressure--expiration           Measurem… LOINC         S               
10    3000653 From initial search Renal artery - right Systolic blood pressure  Measurem… LOINC         S               
# ℹ 135 more rows
…
